<?xml version="1.0" encoding="UTF-8" standalone="no"?>
<svg width="18px" height="18px" viewBox="0 0 18 18" version="1.1" xmlns="http://www.w3.org/2000/svg" xmlns:xlink="http://www.w3.org/1999/xlink" xmlns:sketch="http://www.bohemiancoding.com/sketch/ns">
    <!-- Generator: Sketch 3.2 (9961) - http://www.bohemiancoding.com/sketch -->
    <title>add-icon-light-svg</title>
    <desc>Created with Sketch.</desc>
    <defs></defs>
    <g id="Design" stroke="none" stroke-width="1" fill="none" fill-rule="evenodd" sketch:type="MSPage">
        <g id="JustDine---Menu" sketch:type="MSArtboardGroup" transform="translate(-903.000000, -636.000000)" fill="#FFFFFF">
            <g id="Menu" sketch:type="MSLayerGroup" transform="translate(345.000000, 378.000000)">
                <g id="Content" transform="translate(0.000000, 148.000000)" sketch:type="MSShapeGroup">
                    <g id="Category---Starters" transform="translate(0.000000, 2.000000)">
                        <g id="Item-2" transform="translate(5.000000, 97.000000)">
                            <g id="Add-Button-2" transform="translate(539.000000, 6.000000)">
                                <path d="M31.114,16.3255241 L25.282188,16.3255241 L25.282188,22.1575 L20.7179759,22.1575 L20.7179759,16.3255241 L14.886,16.3255241 L14.886,11.7616398 L20.7179759,11.7616398 L20.7179759,5.9295 L25.282188,5.9295 L25.282188,11.7616398 L31.114,11.7616398 L31.114,16.3255241 L31.114,16.3255241 Z" id="add-icon-light"></path>
                            </g>
                        </g>
                    </g>
                </g>
            </g>
        </g>
    </g>
</svg>