<?xml version="1.0" encoding="UTF-8" standalone="no"?>
<svg width="18px" height="15px" viewBox="0 0 18 15" version="1.1" xmlns="http://www.w3.org/2000/svg" xmlns:xlink="http://www.w3.org/1999/xlink" xmlns:sketch="http://www.bohemiancoding.com/sketch/ns">
    <!-- Generator: Sketch 3.2 (9961) - http://www.bohemiancoding.com/sketch -->
    <title>info-icon-light-svg</title>
    <desc>Created with Sketch.</desc>
    <defs></defs>
    <g id="Design" stroke="none" stroke-width="1" fill="none" fill-rule="evenodd" sketch:type="MSPage">
        <g id="JustDine---Info" sketch:type="MSArtboardGroup" transform="translate(-1064.000000, -393.000000)" fill="#FFFFFF">
            <g id="Info" sketch:type="MSLayerGroup" transform="translate(345.000000, 385.000000)">
                <g id="Info-Button" transform="translate(704.000000, 0.000000)" sketch:type="MSShapeGroup">
                    <path d="M31.0714286,11.125 L16.9285714,11.125 L15,16.125 L16.4862857,16.125 L16.4862857,23 L26.1291429,23 L26.1291429,16.125 L29.9862857,16.125 L29.9862857,23 L31.9148571,23 L31.9148571,16.125 L33,16.125 L31.0714286,11.125 L31.0714286,11.125 Z M24.2005714,20.5 L18.4148571,20.5 L18.4148571,16.125 L24.2005714,16.125 L24.2005714,20.5 Z M17.1291429,8 L17.1291429,9.875 L31.9148571,9.875 L31.9148571,8 L17.1291429,8 Z" id="info-icon-light"></path>
                </g>
            </g>
        </g>
    </g>
</svg>