<?xml version="1.0" encoding="UTF-8" standalone="no"?>
<svg width="17px" height="13px" viewBox="0 0 17 13" version="1.1" xmlns="http://www.w3.org/2000/svg" xmlns:xlink="http://www.w3.org/1999/xlink" xmlns:sketch="http://www.bohemiancoding.com/sketch/ns">
    <!-- Generator: Sketch 3.2 (9961) - http://www.bohemiancoding.com/sketch -->
    <title>mail-icon</title>
    <desc>Created with Sketch.</desc>
    <defs></defs>
    <g id="Design" stroke="none" stroke-width="1" fill="none" fill-rule="evenodd" sketch:type="MSPage">
        <g id="JustDine---Info" sketch:type="MSArtboardGroup" transform="translate(-748.000000, -584.000000)" fill="#404040">
            <g id="Info" sketch:type="MSLayerGroup" transform="translate(345.000000, 385.000000)">
                <g id="Content" transform="translate(0.000000, 151.000000)" sketch:type="MSShapeGroup">
                    <g id="Copy" transform="translate(402.000000, 6.000000)">
                        <g id="Email" transform="translate(1.000000, 37.000000)">
                            <path d="M17,6.77272727 C17,5.79359091 16.2389667,5 15.3,5 L1.7,5 C0.761033333,5 0,5.79359091 0,6.77272727 L0,16.2272727 C0,17.2064091 0.761033333,18 1.7,18 L15.3,18 C16.2389667,18 17,17.2064091 17,16.2272727 L17,6.77272727 L17,6.77272727 Z M15.8666667,8.23522727 L8.5,12.9625 L1.13333333,8.23522727 L1.13333333,6.4625 L8.5,11.0503182 L15.8666667,6.4625 L15.8666667,8.23522727 L15.8666667,8.23522727 Z" id="mail-icon"></path>
                        </g>
                    </g>
                </g>
            </g>
        </g>
    </g>
</svg>