<?xml version="1.0" encoding="UTF-8" standalone="no"?>
<svg width="21px" height="22px" viewBox="0 0 21 22" version="1.1" xmlns="http://www.w3.org/2000/svg" xmlns:xlink="http://www.w3.org/1999/xlink" xmlns:sketch="http://www.bohemiancoding.com/sketch/ns">
    <!-- Generator: Sketch 3.2 (9961) - http://www.bohemiancoding.com/sketch -->
    <title>pencil-icon</title>
    <desc>Created with Sketch.</desc>
    <defs></defs>
    <g id="Design" stroke="none" stroke-width="1" fill="none" fill-rule="evenodd" sketch:type="MSPage">
        <g id="JustDine---Order" sketch:type="MSArtboardGroup" transform="translate(-732.000000, -602.000000)" fill="#404040">
            <g id="Order" sketch:type="MSLayerGroup" transform="translate(345.000000, 385.000000)">
                <g id="Reservation" transform="translate(382.000000, 143.000000)" sketch:type="MSShapeGroup">
                    <g id="Name" transform="translate(5.000000, 42.000000)">
                        <path d="M0,48.3648571 L0,53.6181429 L4.424,53.6181429 L16.8684444,40.7764286 L12.3231111,35.9285714 L0,48.3648571 Z M13.9285137,34.4853301 L18.6425979,39.1994142 L20.9761065,36.8659057 L16.2620223,32.1518215 L13.9285137,34.4853301 Z" id="pencil-icon"></path>
                    </g>
                </g>
            </g>
        </g>
    </g>
</svg>