<?xml version="1.0" encoding="UTF-8" standalone="no"?>
<svg width="24px" height="23px" viewBox="0 0 24 23" version="1.1" xmlns="http://www.w3.org/2000/svg" xmlns:xlink="http://www.w3.org/1999/xlink" xmlns:sketch="http://www.bohemiancoding.com/sketch/ns">
    <!-- Generator: Sketch 3.2 (9961) - http://www.bohemiancoding.com/sketch -->
    <title>person-icon</title>
    <desc>Created with Sketch.</desc>
    <defs></defs>
    <g id="Design" stroke="none" stroke-width="1" fill="none" fill-rule="evenodd" sketch:type="MSPage">
        <g id="JustDine---Order" sketch:type="MSArtboardGroup" transform="translate(-933.000000, -680.000000)" fill="#404040">
            <g id="Order" sketch:type="MSLayerGroup" transform="translate(345.000000, 385.000000)">
                <g id="Reservation" transform="translate(382.000000, 143.000000)" sketch:type="MSShapeGroup">
                    <g id="Table" transform="translate(206.000000, 121.000000)">
                        <path d="M12,43 C15.3137085,43 18,40.3137085 18,37 C18,33.6862915 15.3137085,31 12,31 C8.6862915,31 6,33.6862915 6,37 C6,40.3137085 8.6862915,43 12,43 Z M23.207,49.149 C21.439,47.46 16.935,45.975 11.766,45.975 C6.597,45.975 2.287,47.459 0.522,49.149 C0.114,49.54 0.001,50.079 0.001,50.642 L0.001,54 L11.689,54 L24,54 L24,50.642 C24,50.079 23.613,49.539 23.207,49.149 Z" id="person-icon"></path>
                    </g>
                </g>
            </g>
        </g>
    </g>
</svg>