<?xml version="1.0" encoding="UTF-8" standalone="no"?>
<svg width="15px" height="15px" viewBox="0 0 15 15" version="1.1" xmlns="http://www.w3.org/2000/svg" xmlns:xlink="http://www.w3.org/1999/xlink" xmlns:sketch="http://www.bohemiancoding.com/sketch/ns">
    <!-- Generator: Sketch 3.2 (9961) - http://www.bohemiancoding.com/sketch -->
    <title>phone-icon</title>
    <desc>Created with Sketch.</desc>
    <defs></defs>
    <g id="Design" stroke="none" stroke-width="1" fill="none" fill-rule="evenodd" sketch:type="MSPage">
        <g id="JustDine---Info" sketch:type="MSArtboardGroup" transform="translate(-748.000000, -543.000000)" fill="#404040">
            <g id="Info" sketch:type="MSLayerGroup" transform="translate(345.000000, 385.000000)">
                <g id="Content" transform="translate(0.000000, 151.000000)" sketch:type="MSShapeGroup">
                    <g id="Copy" transform="translate(402.000000, 6.000000)">
                        <g id="Number" transform="translate(1.000000, 0.000000)">
                            <path d="M5.09596154,5.32 C5.09596154,5.32 3.12519231,6.37576923 3.02884615,7.04961538 C2.9325,7.72230769 7.04365385,12.8644231 8.58173077,12.6728846 C10.1198077,12.4801923 10.5784615,10.7061538 10.5784615,10.7061538 L14.9076923,11.8542308 L14.9076923,15.8926923 C5.1,15.8926923 3.28626015e-14,7.92307692 3.28626015e-14,1 L3.94211538,1 L5.09596154,5.32 L5.09596154,5.32 Z" id="phone-icon"></path>
                        </g>
                    </g>
                </g>
            </g>
        </g>
    </g>
</svg>