<?xml version="1.0" encoding="UTF-8" standalone="no"?>
<svg width="26px" height="15px" viewBox="0 0 26 15" version="1.1" xmlns="http://www.w3.org/2000/svg" xmlns:xlink="http://www.w3.org/1999/xlink" xmlns:sketch="http://www.bohemiancoding.com/sketch/ns">
    <!-- Generator: Sketch 3.2 (9961) - http://www.bohemiancoding.com/sketch -->
    <title>triangle-order</title>
    <desc>Created with Sketch.</desc>
    <defs></defs>
    <g id="Design" stroke="none" stroke-width="1" fill="none" fill-rule="evenodd" sketch:type="MSPage">
        <g id="JustDine---Order" sketch:type="MSArtboardGroup" transform="translate(-1006.000000, -437.000000)" fill="#CF2643">
            <g id="Order" sketch:type="MSLayerGroup" transform="translate(345.000000, 385.000000)">
                <g id="Header" sketch:type="MSShapeGroup">
                    <g id="Header-Background" transform="translate(0.000000, 52.000000)">
                        <polygon id="triangle-order" points="674 0 687 15 661 15 "></polygon>
                    </g>
                </g>
            </g>
        </g>
    </g>
</svg>