<?xml version="1.0" encoding="utf-8"?>
<!-- Generator: Adobe Illustrator 18.0.0, SVG Export Plug-In . SVG Version: 6.00 Build 0)  -->
<!DOCTYPE svg PUBLIC "-//W3C//DTD SVG 1.1//EN" "http://www.w3.org/Graphics/SVG/1.1/DTD/svg11.dtd">
<svg version="1.1" id="Layer_1" xmlns="http://www.w3.org/2000/svg" xmlns:xlink="http://www.w3.org/1999/xlink" x="0px" y="0px"
	 viewBox="0 0 640 480" enable-background="new 0 0 640 480" xml:space="preserve">
<g>
	<path fill="#D6D6D6" d="M610,246.7c0-1.1,0-2.2,0-3.3s-0.3-2.5-0.3-3.9c-1.1-10-5-19.8-11.4-28.1c-6.4-8.4-14.8-15.3-24.8-20.1
		l-0.6-0.6c0.3,0-0.6-0.3-0.6-0.3h-0.3l-0.8-0.3l-1.7-0.6l-3.3-1.4c-1.1-0.3-2.5-0.8-3.9-1.1l-4.5-1.1c-5.6-1.4-10.9-2-16.4-2.2
		c-10.9-0.6-22,0.6-32.9,3.1l-2,0.6l-0.6,0.3c-0.3,0.3,0.3,0-0.6,0.3h-0.3h-0.6l-3.9,1.1c-2.5,0.8-5,1.4-7.5,2.2
		c-2.8,0.6-5.3,2-8.1,2.8c-2.8,0.8-5.6,2-8.1,3.1c-20.3,8.9-39.3,20.6-57.4,32.9l-0.3-7.8l6.7-5c3.3-2.5,6.4-4.7,9.8-7
		c3.1-2.5,6.4-4.5,9.8-6.7c3.3-2.2,6.7-3.9,10-6.1c3.3-2.2,7-3.9,10.3-5.9c3.6-1.7,7-3.6,10.6-5.3c3.6-1.7,7.2-3.3,10.9-4.7l5.6-2.2
		l5.6-2c1.7-0.6,3.6-1.1,5.6-1.7c1.7-0.6,3.6-1.1,5.6-1.7l5.9-1.4l5.9-1.1c3.9-0.6,7.8-1.1,11.7-1.4c2-0.3,3.9-0.3,5.9-0.3
		s3.9,0,5.9,0c3.9,0,7.8,0.6,11.7,1.1c3.9,0.8,7.8,1.7,11.7,2.8c3.9,1.1,7.5,2.8,11.1,4.5c3.6,1.7,7,3.9,10,6.4
		c-3.1-2.8-6.4-5.3-9.8-7.2c-3.3-2.2-7-3.9-10.9-5.3c-3.9-1.7-7.8-2.5-11.7-3.6c-3.9-0.8-7.8-1.7-12-2c-2-0.3-4.2-0.6-6.1-0.6
		s-4.2,0-6.1,0c-4.2,0-8.1,0.3-12.3,0.6c-2,0.3-4.2,0.6-6.1,0.8l-8.4,0.8c-2.2,0.6-4.2,1.1-6.1,1.4c-2,0.3-3.9,0.8-5.9,1.4l-5.9,1.7
		l-5.9,2c-3.9,1.1-7.5,2.8-11.4,4.2c-3.6,1.4-7.5,3.1-11.1,4.7c-3.9,1.7-7.5,3.3-11.1,5.3c-3.6,1.7-7.2,3.6-10.9,5.6
		c-3.6,2-7.2,3.9-10.6,6.1c-3.3,2.2-7,4.2-10.3,6.4l-10.3,6.7l-2.5,1.7v3.6l-0.8,21.2c-13.1,9.5-26.2,18.9-39.3,27.3
		c-2.2,1.4-4.5,2.8-6.7,4.2c-2.2,1.1-4.5,2.5-6.7,3.9c-4.5,2.8-8.9,5-13.4,7.5c-1.1,0.6-2.2,1.1-3.3,1.7l-3.3,1.7
		c-2.5,0.8-4.7,2-7,3.1s-4.7,2-7,2.8c-2.2,1.1-4.5,2-6.7,2.8c-2.5,0.6-5,1.7-7.2,2.2c-2.2,0.8-4.5,1.4-6.7,2
		c-4.7,1.1-9.2,2.2-13.9,2.8c-9.2,1.4-18.4,1.7-27.3,1.1c-8.6-0.6-17.3-2.5-25.1-5c-2-0.8-3.9-1.4-5.9-2.2s-3.9-1.4-5.6-2.5
		c-2-0.8-3.6-1.7-5.3-2.8c-0.8-0.6-1.7-1.1-2.5-1.7l-1.1-0.8l-0.3-0.3h-0.3c0.3,0.3,0,0,0,0l-0.6-0.6c-1.4-1.1-3.1-2.5-4.7-3.6
		c-1.4-1.1-2.5-2.5-3.9-3.6c-1.1-1.1-2.5-2.5-3.6-3.9c-1.1-1.4-2.2-2.8-3.3-4.2c-2.2-2.8-4.2-5.9-5.9-8.6c-1.4-3.1-3.1-5.9-4.2-8.9
		c-5-12-6.1-23.4-5.6-32.6c0.8-9.2,3.3-16.4,5.6-20.9c1.1-2.2,2.2-3.9,2.8-5c0.8-1.1,1.1-1.7,1.1-1.7s-0.3,0.6-1.1,1.7
		s-2.2,2.5-3.6,4.7c-2.8,4.2-6.4,11.1-8.1,20.9c-2,9.5-2,22,2.5,35.1c1.1,3.3,2.5,6.7,3.9,10c1.7,3.3,3.3,6.7,5.6,10
		c1.1,1.7,2,3.3,3.3,5c1.4,1.4,2.5,3.1,3.9,4.7c1.4,1.7,3.1,3.1,4.5,4.7c1.7,1.1,3.1,2.5,4.7,3.9l0.6,0.6c0,0-0.3,0,0.3,0.3h0.3
		l0.3,0.3l1.4,0.8c1.1,0.6,2,1.4,2.8,2c1.7,1.4,3.6,2.5,5.6,3.6c2,1.4,4.2,2.2,6.1,3.3c2.2,1.1,4.2,2,6.4,2.8
		c8.6,3.3,18.1,5.9,27.9,7c9.8,1.1,20.1,1.4,30.4,0.3c5.3-0.3,10.3-1.1,15.6-2.2c2.5-0.6,5.3-1.4,7.8-2c2.8-0.8,5-1.4,7.5-2.2
		c2.5-0.8,5.3-2,7.8-2.8c2.5-0.8,5-1.7,7.5-2.8c2.5-1.1,5-2.2,7.5-3.3l3.6-1.7c1.1-0.8,2.5-1.4,3.6-2c4.7-2.2,9.8-4.7,14.5-7.5
		c2.5-1.4,4.7-2.8,7.2-4.2c2.2-1.7,4.7-3.1,7-4.5c10-6.4,19.8-13.1,29.5-19.8l-0.3,11.7c-2.8,2.5-5.9,4.7-8.6,7
		c-3.9,3.1-8.1,6.1-12.3,8.9c-8.4,5.6-17,10.9-25.9,15.9c-2.2,1.4-4.5,2.5-6.7,3.6c-2.5,1.1-4.7,2.2-7,3.3s-4.7,2-7,3.1
		s-4.5,2.2-7,3.1s-4.7,2-7.2,2.8l-7.2,2.5c-5,1.4-9.8,2.8-14.8,3.9c-1.1,0.3-2.5,0.6-3.6,0.8l-3.6,0.6c-2.5,0.3-5,0.8-7.5,1.1
		s-5,0.6-7.5,0.8l-7.5,0.3c-5.3-0.3-10.3-0.3-15.3-0.8l-3.9-0.3l-3.6-0.6l-3.6-0.6c-1.1-0.3-2.5-0.6-3.6-0.8l-7.5-2
		c-2.5-0.8-4.7-2-7.2-2.8c-2.5-0.8-4.7-2-7-3.1c-2.5-1.1-4.7-2.2-7-3.6l-6.7-3.9c-2.2-1.4-4.2-3.1-6.4-4.5l-3.1-2.2l-2.8-2.5l-5.9-5
		l5.6,5.6l2.8,2.8l3.1,2.5c2.2,1.7,4.2,3.3,6.1,5l6.4,4.5c2,1.7,4.5,2.8,6.7,4.2c2.2,1.1,4.5,2.5,7,3.6c2.5,1.1,4.7,2.2,7.2,3.3
		l7.5,2.5c1.4,0.6,2.5,0.8,3.9,1.1l3.9,1.1l3.9,0.8l3.9,0.6c5.3,1.1,10.6,1.4,15.9,2l8.1,0.3c2.8,0,5.3-0.3,8.1-0.3
		c2.8,0,5.3-0.3,8.1-0.6l3.9-0.6c1.4,0,2.5-0.3,3.9-0.6c5.3-0.8,10.3-2,15.6-3.1l7.8-2c2.5-0.6,5-1.4,7.5-2.2c2.5-0.6,5-1.7,7.5-2.5
		c2.5-0.8,5-1.7,7.5-2.8c2.2-1.1,4.7-2,7.2-3.1c2.5-1.1,4.7-2.2,7.2-3.3c9.5-4.5,18.9-9.5,28.1-14.8c4.7-2.5,9.2-5.6,13.7-8.4
		c4.5-3.1,8.9-6.1,13.4-9.5l3.1-2.2l0.3-4.5l0,0l-0.8-27c2.8-2,5.9-3.9,8.6-5.9c17.6-12.3,35.7-23.4,54.6-32c2.2-1.1,4.7-2,7-2.8
		c2.2-0.8,4.5-2,7-2.8c2.5-0.8,5-1.7,7.5-2.5l3.9-1.1l0.6-0.3h0.3l0,0l0.8-0.3l1.7-0.6c9.5-2.5,19.2-3.9,28.7-3.6
		c4.7,0,9.5,0.6,13.7,1.4l3.1,0.8c1.1,0.3,2.2,0.3,3.3,0.8l3.6,1.1l1.7,0.6l0.8,0.3l0,0h0.3c8.1,3.3,15,8.6,20.3,15
		c5.6,6.4,8.9,14.2,10,21.5c0,1.1,0.3,1.7,0.3,2.8s0,2.2,0,3.3v0.3l0,0v0.3v0.6v1.4c0,1.1,0,2-0.3,2.8c-0.6,3.3-1.7,7-3.6,10
		c-3.6,6.4-8.9,11.4-14.8,14.5c-1.4,0.8-3.1,1.4-4.5,2c-1.4,0.3-2.8,1.1-4.5,1.1c-0.8,0-1.4,0.3-2.2,0.3s-1.7,0-2.2,0
		c-0.8,0-1.7-0.3-2.5-0.3s-1.4-0.3-2.2-0.3c-6.1-1.1-10.9-4.2-13.9-8.4c-3.1-4.2-4.7-9.2-5.3-13.7c-0.8-4.7-0.8-8.9-0.6-12.5
		c0-1.7,0.3-3.3,0.6-5c0.3-1.4,0.6-3.1,0.8-4.2c0.6-2.5,1.1-4.2,1.4-5.6c0.3-1.4,0.6-2,0.6-2s-0.3,0.8-0.8,2c-0.6,1.4-1.1,3.1-2,5.6
		c-0.3,1.4-0.6,2.8-1.1,4.2c-0.3,1.4-0.8,3.1-1.1,5c-0.6,3.9-1.1,8.1-0.8,13.1c0.3,5,1.4,10.6,4.7,16.2c3.3,5.6,9.5,10,16.4,12h0.3
		c0,0,0.6,0,0.3,0h0.3h0.6l1.1,0.3c0.8,0.3,1.7,0.6,2.8,0.6c1.1,0.3,2,0.3,3.1,0.3c1.1,0.3,2,0,3.1,0c2,0,3.9-0.6,5.9-0.8
		c2-0.6,3.9-1.1,5.9-2c3.9-1.4,7.5-3.9,10.9-6.7c3.6-2.8,6.4-6.1,8.9-10c2.8-3.6,4.7-8.1,5.9-12.8c0.3-1.1,0.8-2.5,0.8-3.6l0.3-2
		v-0.8v-0.6L610,246.7z"/>
	<path fill="#D6D6D6" d="M235,155h1.4c0,0-0.3,0,0,0h0.3h0.3h0.6h2.5c13.7,0,27.9,3.1,40.1,9.5c6.1,3.1,11.7,7,16.7,11.7l3.6,3.6
		c1.1,1.1,2,2.2,3.1,3.6l1.7,2.2l0.8,1.1l0.3,0.6l0,0l0.3,0.3c0.8,1.4,1.7,2.8,2.5,4.2c3.1,5.9,5,12.3,6.1,18.7
		c1.1,6.4,1.1,12.8,0.3,19.2c-1.1,6.1-3.1,12.3-5.9,17.6c-0.6,1.4-1.4,2.5-2.2,3.9c-0.8,1.4-1.7,2.2-2.5,3.3l-0.6,0.8
		c-0.3,0.3-0.6,0.6-0.8,0.8l-1.7,2l-0.8,0.8l-0.3,0.3l0,0l-0.3,0.3l-1.7,1.4c-8.6,7.8-20.1,11.7-30.4,12.5c-1.1,0-2.5,0-3.6,0h-2
		c-0.6,0-1.1,0-2,0c-1.4-0.3-2.8-0.3-4.2-0.6h-1.1H255h-0.3l0,0l0,0c-0.6,0-1.1-0.3-1.7-0.3c-4.7-0.8-9.2-2.8-13.1-4.7
		c-8.1-4.2-13.9-9.2-18.4-14.2c-4.2-4.7-7-9.5-8.6-12.5c-0.8-1.4-1.4-2.8-1.7-3.6c-0.3-0.8-0.6-1.4-0.6-1.4s0,0.6,0.3,1.4
		c0.3,0.8,0.6,2.2,1.1,3.9c1.1,3.3,3.1,8.4,7,14.2c3.9,5.6,9.5,12.3,17.6,17.8c4.2,2.8,8.9,5.3,14.2,7.2c0.6,0.3,1.4,0.6,2,0.8
		c0.8,0.3,1.4,0.3,2.2,0.6c1.1,0.3,2.5,0.6,3.9,0.8c1.1,0.3,2.8,0.3,4.5,0.6c1.4,0,3.1,0.3,4.7,0.3c12.3,0.3,26.5-3.1,38.2-12.3
		l2.2-1.7l0.3-0.3h0.3c-0.3,0.3,0.3-0.3,0.3-0.3l0.6-0.6l0.8-0.8l2-1.7c0.3-0.3,0.6-0.6,0.8-0.8l1.1-1.1c1.4-1.7,2.8-3.1,3.9-4.7
		c1.1-1.4,2.2-3.1,3.3-4.7c3.9-6.7,6.7-14.2,8.4-22c1.7-7.8,2-16.2,0.8-24.2s-3.3-16.4-7.2-24c-0.8-2-2-3.6-3.1-5.6l-0.3-0.3v-0.3
		c0.3,0-0.3-0.6-0.3-0.6l-0.3-0.6l-0.8-1.1l-1.7-2.2c-1.1-1.7-2.8-3.6-4.2-5.3c-1.4-1.7-3.1-3.1-4.5-4.7
		c-6.1-5.9-13.1-10.9-20.6-14.8c-15-7.8-32-11.4-48.5-10.9l-3.1,0.3H235l-1.4,0.3l-2.8,0.3l-1.4,0.3l-1.7,0.3
		c-4.2,0.6-8.1,1.4-12,2.5c-7.8,2.2-15,5-22,8.4c-13.7,6.7-25.4,15.6-35.4,25.1c-1.1,1.1-2.5,2.5-3.6,3.6l-1.7,2l-0.6,0.6l-0.3,0.6
		l-0.8,0.8c-2,2.5-4.2,5-6.1,7.2c-1.1,1.1-2.2,2.2-3.1,3.6c-0.8,1.4-2,2.5-2.8,3.9c-2,2.5-3.9,5-5.3,7.5c-3.1,5-6.1,9.8-8.6,14.5
		c-1.1,2.5-2.5,4.7-3.6,7c-1.1,2.2-2,4.5-3.1,6.7s-2,4.5-2.8,6.4c-0.8,2.2-1.7,4.2-2.2,6.1c-0.6,2-1.4,3.9-2,5.6
		c-0.6,2-0.8,3.6-1.4,5.3c-0.8,3.1-1.7,6.1-2.2,8.6c-0.6,2.8-1.1,5-1.4,6.7c-0.8,3.6-1.1,5.6-1.1,5.6s0.6-2,2-5.3
		c0.6-1.7,1.4-3.6,2.2-6.1c1.1-2.2,2.2-5,3.6-8.1c0.8-1.4,1.4-3.1,2.2-4.7c0.8-1.4,2-3.3,2.8-5c0.8-1.7,2-3.6,2.8-5.6
		c0.8-2,2.2-3.9,3.3-5.9c1.1-2,2.5-3.9,3.6-6.1c1.4-2,2.8-3.9,4.2-6.1c1.4-2,2.8-4.5,4.5-6.4c1.7-2,3.3-4.2,5-6.4
		c1.7-2.2,3.6-4.2,5.6-6.4c0.8-1.1,2-2.2,2.8-3.3l1.4-1.7c0.6-0.6,1.1-1.1,1.7-1.7c2.2-2.2,4.5-4.5,6.7-6.7l0.8-0.8l0.6-0.6
		c0,0-0.3,0.3,0,0l0,0l0.3-0.3l1.7-1.7c1.1-1.1,2.5-2,3.6-3.1c9.5-8.1,20.9-15.6,33.2-20.9c6.1-2.5,12.5-4.7,19.2-6.4
		c3.3-0.6,7-1.4,10-1.7l1.1-0.3h1.4L235,155z"/>
	<g>
		<path fill="none" d="M111,335v0.3v0.3v0.6v1.1c0,2.8,0.6,5.6,1.4,8.1c0.6,2.2,2,4.5,2.8,5c0.6-0.8,1.4-3.1,1.4-5.6
			s-0.3-5.3-0.8-8.1c-0.8-4.2-2.2-8.6-3.9-12.8c-0.3,1.7-0.6,3.1-0.6,4.5s-0.3,3.1-0.3,4.5V335z"/>
		<path fill="#D6D6D6" d="M56.4,236.9c0,0,41,60.5,44.3,65.8c0.8,1.7,2,3.1,2.8,4.7c-2,6.1-3.3,12.5-4.2,18.9
			c-0.3,1.7-0.6,3.6-0.6,5.3l-0.3,2.8v2.5c0,3.9,0.3,7.5,1.4,11.4c0.6,2,1.4,3.9,2.5,5.9c1.1,2,2.5,3.9,4.7,5.6
			c2.2,1.7,5.6,3.1,9.2,2.8s6.7-2.5,8.4-4.7c1.7-2.2,2.8-4.5,3.3-6.7c0.6-2,0.8-4.2,1.1-6.1c0.3-3.9-0.3-7.8-0.8-11.4
			c-1.4-7.2-3.9-13.9-7-20.1c-1.7-3.3-3.6-6.7-5.6-10c1.1-4.2,2.5-8.4,3.9-12.5c2.2-6.1,4.5-12,7-18.1c2.5-5.9,5-12,7.8-17.8
			s5.6-12,8.4-17.8c2.8-5.9,5.6-11.7,8.6-17.6c3.1-5.9,6.1-11.7,9.2-17.6c-3.9,5.3-7.8,10.6-11.4,16.2c-3.9,5.6-7.5,11.1-10.9,16.7
			c-3.3,5.6-7,11.1-10,17c-3.1,5.9-6.1,11.7-9.2,17.6c-2.8,5.9-5.6,12-8.1,18.1c-0.6,1.7-1.4,3.3-2,5c-3.1-4.5-6.4-8.6-9.8-12.8
			c-4.5-5.3-8.6-10.3-13.4-15c-4.7-4.7-9.5-9.5-14.2-13.9c-4.7-4.5-9.8-8.9-14.8-13.1L56.4,236.9z M111,335.6V335v-2.2
			c0-1.4,0.3-3.1,0.3-4.5c0.3-1.7,0.3-3.1,0.6-4.5c1.7,4.2,3.1,8.6,3.9,12.8c0.6,2.8,0.8,5.6,0.8,8.1s-0.8,4.7-1.4,5.6
			c-0.8-0.6-2-2.8-2.8-5c-0.8-2.5-1.1-5.6-1.4-8.1v-1.1V335.6C111,335.3,111,335,111,335.6z"/>
	</g>
</g>
</svg>
