<?xml version="1.0" encoding="utf-8"?>
<!-- Generator: Adobe Illustrator 18.0.0, SVG Export Plug-In . SVG Version: 6.00 Build 0)  -->
<!DOCTYPE svg PUBLIC "-//W3C//DTD SVG 1.1//EN" "http://www.w3.org/Graphics/SVG/1.1/DTD/svg11.dtd">
<svg version="1.1" id="Layer_1" xmlns="http://www.w3.org/2000/svg" xmlns:xlink="http://www.w3.org/1999/xlink" x="0px" y="0px"
	 viewBox="0 0 640 480" enable-background="new 0 0 640 480" xml:space="preserve">
<g>
	<path fill="#D6D6D6" d="M50.2,247.2v0.6v0.8l0.3,2c0,1.1,0.6,2.5,0.8,3.6c1.1,4.7,3.1,9.2,5.9,12.8c2.5,3.9,5.3,7.2,8.9,10
		c3.3,2.8,7,5.3,10.9,6.7c2,0.8,3.9,1.4,5.9,2c2,0.3,3.9,0.8,5.9,0.8c1.1,0,2,0.3,3.1,0c1.1,0,2,0,3.1-0.3c1.1,0,2-0.3,2.8-0.6
		l1.1-0.3h0.6h0.3c-0.3,0,0.3,0,0.3,0h0.3c7-2,13.1-6.4,16.4-12c3.3-5.6,4.5-11.1,4.7-16.2c0.3-5-0.3-9.2-0.8-13.1
		c-0.3-2-0.8-3.6-1.1-5c-0.6-1.4-0.8-2.8-1.1-4.2c-0.8-2.5-1.4-4.2-2-5.6c-0.6-1.1-0.8-2-0.8-2s0.3,0.6,0.6,2
		c0.3,1.4,0.8,3.1,1.4,5.6c0.3,1.1,0.6,2.8,0.8,4.2c0.3,1.7,0.6,3.3,0.6,5c0.3,3.6,0.3,7.8-0.6,12.5c-0.6,4.5-2.2,9.5-5.3,13.7
		c-3.1,4.2-7.8,7.2-13.9,8.4c-0.8,0-1.4,0.3-2.2,0.3c-0.8,0-1.7,0.3-2.5,0.3c-0.6,0-1.4,0-2.2,0s-1.4-0.3-2.2-0.3
		c-1.7,0-3.1-0.8-4.5-1.1c-1.4-0.6-3.1-1.1-4.5-2c-5.9-3.1-11.1-8.1-14.8-14.5c-2-3.1-3.1-6.7-3.6-10c-0.3-0.8-0.3-1.7-0.3-2.8v-1.4
		v-0.6v-0.3l0,0v-0.3c0-1.1,0-2.2,0-3.3s0.3-1.7,0.3-2.8c1.1-7.2,4.5-15,10-21.5c5.3-6.4,12.3-11.7,20.3-15h0.3l0,0l0.8-0.3l1.7-0.6
		l3.6-1.1c1.1-0.6,2.2-0.6,3.3-0.8l3.1-0.8c4.2-0.8,8.9-1.4,13.7-1.4c9.5-0.3,19.2,1.1,28.7,3.6l1.7,0.6l0.8,0.3l0,0h0.3l0.6,0.3
		l3.9,1.1c2.5,0.8,5,1.7,7.5,2.5c2.5,0.8,4.7,2,7,2.8c2.2,0.8,4.7,1.7,7,2.8c18.9,8.6,37.1,19.8,54.6,32c2.8,2,5.9,3.9,8.6,5.9
		l-0.8,27l0,0l0.3,4.5l3.1,2.2c4.5,3.3,8.9,6.4,13.4,9.5c4.5,2.8,8.9,5.9,13.7,8.4c9.2,5.3,18.7,10.3,28.1,14.8
		c2.5,1.1,4.7,2.2,7.2,3.3c2.5,1.1,5,2,7.2,3.1c2.5,1.1,5,2,7.5,2.8c2.5,0.8,5,2,7.5,2.5c2.5,0.8,5,1.7,7.5,2.2l7.8,2
		c5.3,1.1,10.3,2.2,15.6,3.1c1.4,0.3,2.5,0.6,3.9,0.6l3.9,0.6c2.8,0.3,5.3,0.6,8.1,0.6c2.8,0,5.3,0.3,8.1,0.3l8.1-0.3
		c5.3-0.6,10.6-0.8,15.9-2l3.9-0.6l3.9-0.8l3.9-1.1c1.4-0.3,2.5-0.6,3.9-1.1l7.5-2.5c2.5-1.1,4.7-2.2,7.2-3.3s4.7-2.5,7-3.6
		c2.2-1.4,4.7-2.5,6.7-4.2l6.4-4.5c2-1.7,3.9-3.3,6.1-5l3.1-2.5l2.8-2.8l5.6-5.6l-5.9,5l-2.8,2.5l-3.1,2.2c-2.2,1.4-4.2,3.1-6.4,4.5
		l-6.7,3.9c-2.2,1.4-4.5,2.5-7,3.6c-2.2,1.1-4.5,2.2-7,3.1c-2.5,0.8-4.7,2-7.2,2.8l-7.5,2c-1.1,0.3-2.5,0.6-3.6,0.8l-3.6,0.6
		l-3.6,0.6l-3.9,0.3c-5,0.6-10,0.6-15.3,0.8l-7.5-0.3c-2.5-0.3-5-0.6-7.5-0.8s-5-0.8-7.5-1.1l-3.6-0.6c-1.1-0.3-2.5-0.6-3.6-0.8
		c-5-1.1-9.8-2.5-14.8-3.9l-7.2-2.5c-2.5-0.8-4.7-2-7.2-2.8s-4.7-2-7-3.1s-4.7-2-7-3.1s-4.5-2.2-7-3.3c-2.2-1.1-4.5-2.2-6.7-3.6
		c-8.9-5-17.6-10.3-25.9-15.9c-4.2-2.8-8.4-5.9-12.3-8.9c-2.8-2.2-5.9-4.5-8.6-7l-0.3-11.7c9.8,6.7,19.5,13.4,29.5,19.8
		c2.2,1.4,4.7,2.8,7,4.5c2.5,1.4,4.7,2.8,7.2,4.2c4.7,2.8,9.8,5.3,14.5,7.5c1.1,0.6,2.5,1.1,3.6,2l3.6,1.7c2.5,1.1,5,2.2,7.5,3.3
		s5,2,7.5,2.8c2.5,0.8,5.3,2,7.8,2.8c2.5,0.8,4.7,1.4,7.5,2.2c2.5,0.6,5.3,1.4,7.8,2c5.3,1.1,10.3,2,15.6,2.2
		c10.3,1.1,20.6,0.8,30.4-0.3s19.2-3.6,27.9-7c2.2-0.8,4.2-1.7,6.4-2.8c2-1.1,4.2-2,6.1-3.3c2-1.1,3.9-2.2,5.6-3.6
		c0.8-0.6,1.7-1.4,2.8-2l1.4-0.8l0.3-0.3h0.3c0.6-0.3,0.3-0.3,0.3-0.3l0.6-0.6c1.7-1.4,3.1-2.8,4.7-3.9c1.4-1.7,3.1-3.1,4.5-4.7
		c1.4-1.7,2.5-3.3,3.9-4.7c1.4-1.7,2.2-3.3,3.3-5c2.2-3.3,3.9-6.7,5.6-10c1.4-3.3,2.8-6.7,3.9-10c4.5-13.1,4.5-25.6,2.5-35.1
		c-1.7-9.8-5.3-16.7-8.1-20.9c-1.4-2.2-2.8-3.6-3.6-4.7c-0.8-1.1-1.1-1.7-1.1-1.7s0.3,0.6,1.1,1.7c0.6,1.1,1.7,2.8,2.8,5
		c2.2,4.5,4.7,11.7,5.6,20.9c0.6,9.2-0.6,20.6-5.6,32.6c-1.1,3.1-2.8,5.9-4.2,8.9c-1.7,2.8-3.6,5.9-5.9,8.6
		c-1.1,1.4-2.2,2.8-3.3,4.2c-1.1,1.4-2.5,2.8-3.6,3.9c-1.4,1.1-2.5,2.5-3.9,3.6c-1.7,1.1-3.3,2.5-4.7,3.6l-0.6,0.6c0,0-0.3,0.3,0,0
		h-0.3l-0.3,0.3l-1.1,0.8c-0.8,0.6-1.7,1.1-2.5,1.7c-1.7,1.1-3.3,2-5.3,2.8c-1.7,1.1-3.6,1.7-5.6,2.5c-2,0.8-3.9,1.4-5.9,2.2
		c-7.8,2.5-16.4,4.5-25.1,5c-8.9,0.6-18.1,0.3-27.3-1.1c-4.7-0.6-9.2-1.7-13.9-2.8c-2.2-0.6-4.5-1.1-6.7-2c-2.2-0.6-4.7-1.7-7.2-2.2
		c-2.2-0.8-4.5-1.7-6.7-2.8c-2.2-0.8-4.7-1.7-7-2.8s-4.5-2.2-7-3.1l-3.3-1.7c-1.1-0.6-2.2-1.1-3.3-1.7c-4.5-2.5-8.9-4.7-13.4-7.5
		c-2.2-1.4-4.5-2.8-6.7-3.9c-2.2-1.4-4.5-2.8-6.7-4.2c-13.1-8.4-26.2-17.8-39.3-27.3l-0.8-21.2v-3.6l-2.5-1.7l-10.3-6.7
		c-3.3-2.2-7-4.2-10.3-6.4c-3.3-2.2-7-4.2-10.6-6.1c-3.6-2-7.2-3.9-10.9-5.6c-3.6-2-7.2-3.6-11.1-5.3c-3.6-1.7-7.5-3.3-11.1-4.7
		c-3.9-1.4-7.5-3.1-11.4-4.2l-5.9-2l-5.9-1.7c-2-0.6-3.9-1.1-5.9-1.4c-2-0.3-3.9-0.8-6.1-1.4l-8.4-0.8c-2-0.3-4.2-0.6-6.1-0.8
		c-4.2-0.3-8.1-0.6-12.3-0.6c-2,0-4.2,0-6.1,0c-2,0-4.2,0.3-6.1,0.6c-4.2,0.3-8.1,1.1-12,2c-3.9,1.1-7.8,2-11.7,3.6
		c-3.9,1.4-7.5,3.1-10.9,5.3c-3.3,2-6.7,4.5-9.8,7.2c3.1-2.5,6.4-4.7,10-6.4s7.2-3.3,11.1-4.5c3.9-1.1,7.8-2,11.7-2.8
		c3.9-0.6,7.8-1.1,11.7-1.1c2,0,3.9,0,5.9,0c2,0,3.9,0,5.9,0.3c3.9,0.3,7.8,0.8,11.7,1.4l5.9,1.1l5.9,1.4c2,0.6,3.9,1.1,5.6,1.7
		c2,0.6,3.9,1.1,5.6,1.7l5.6,2l5.6,2.2c3.6,1.4,7.2,3.1,10.9,4.7c3.6,1.7,7,3.6,10.6,5.3c3.3,2,7,3.6,10.3,5.9
		c3.3,2.2,6.7,3.9,10,6.1c3.3,2.2,6.7,4.2,9.8,6.7c3.3,2.2,6.4,4.5,9.8,7l6.7,5l-0.3,7.8c-18.1-12.3-37.1-24-57.4-32.9
		c-2.5-1.1-5.3-2.2-8.1-3.1c-2.8-0.8-5.3-2.2-8.1-2.8c-2.5-0.8-5-1.4-7.5-2.2l-3.9-1.1h-0.6h-0.3c-0.8-0.3-0.3,0-0.6-0.3l-0.6-0.3
		l-2-0.6c-10.9-2.5-22-3.6-32.9-3.1c-5.6,0.3-10.9,0.8-16.4,2.2l-4.5,1.1c-1.4,0.3-2.8,0.8-3.9,1.1l-3.3,1.4l-1.7,0.6l-0.8,0.3h-0.3
		c0,0-0.8,0.3-0.6,0.3l-0.6,0.6c-10,4.7-18.4,11.7-24.8,20.1c-6.4,8.4-10.3,18.1-11.4,28.1c0,1.4-0.3,2.8-0.3,3.9s0,2.2,0,3.3
		L50.2,247.2z"/>
	<path fill="#D6D6D6" d="M428,156.7h1.4l1.1,0.3c3.1,0.3,6.7,1.1,10,1.7c6.7,1.7,13.1,3.9,19.2,6.4c12.3,5.3,23.7,12.8,33.2,20.9
		c1.1,1.1,2.5,2,3.6,3.1l1.7,1.7l0.3,0.3l0,0c0.3,0.3,0,0,0,0l0.6,0.6l0.8,0.8c2.2,2.2,4.5,4.5,6.7,6.7c0.6,0.6,1.1,1.1,1.7,1.7
		l1.4,1.7c0.8,1.1,2,2.2,2.8,3.3c2,2.2,3.9,4.2,5.6,6.4c1.7,2.2,3.3,4.5,5,6.4c1.7,2,3.1,4.5,4.5,6.4c1.4,2.2,2.8,4.2,4.2,6.1
		c1.1,2.2,2.5,4.2,3.6,6.1c1.1,2,2.5,3.9,3.3,5.9c0.8,2,2,3.9,2.8,5.6s2,3.6,2.8,5c0.8,1.7,1.4,3.3,2.2,4.7c1.4,3.1,2.5,5.9,3.6,8.1
		c0.8,2.5,1.7,4.5,2.2,6.1c1.4,3.3,2,5.3,2,5.3s-0.3-2-1.1-5.6c-0.3-1.7-0.8-3.9-1.4-6.7c-0.6-2.5-1.4-5.6-2.2-8.6
		c-0.6-1.7-0.8-3.3-1.4-5.3c-0.6-1.7-1.4-3.6-2-5.6c-0.6-2-1.4-3.9-2.2-6.1c-0.8-2-1.7-4.2-2.8-6.4c-1.1-2.2-2-4.5-3.1-6.7
		c-1.1-2.2-2.5-4.5-3.6-7c-2.5-4.7-5.6-9.5-8.6-14.5c-1.4-2.5-3.3-5-5.3-7.5c-0.8-1.4-2-2.5-2.8-3.9c-0.8-1.4-2-2.5-3.1-3.6
		c-2-2.2-4.2-4.7-6.1-7.2l-0.8-0.8l-0.3-0.6l-0.6-0.6l-1.7-2c-1.1-1.1-2.5-2.5-3.6-3.6c-10-9.5-21.7-18.4-35.4-25.1
		c-7-3.3-14.2-6.1-22-8.4c-3.9-1.1-7.8-2-12-2.5l-1.7-0.3l-1.4-0.3l-2.8-0.3l-1.4-0.3h-1.7l-3.1-0.3c-16.4-0.6-33.4,3.1-48.5,10.9
		c-7.5,3.9-14.5,8.9-20.6,14.8c-1.4,1.7-3.1,3.1-4.5,4.7c-1.4,1.7-3.1,3.6-4.2,5.3l-1.7,2.2l-0.8,1.1l-0.3,0.6c0,0-0.6,0.6-0.3,0.6
		v0.3l-0.3,0.3c-1.1,2-2.2,3.6-3.1,5.6c-3.9,7.5-6.1,15.9-7.2,24s-0.8,16.4,0.8,24.2c1.7,7.8,4.5,15.3,8.4,22
		c1.1,1.7,2.2,3.3,3.3,4.7c1.1,1.7,2.5,3.1,3.9,4.7l1.1,1.1c0.3,0.3,0.6,0.6,0.8,0.8l2,1.7l0.8,0.8l0.6,0.6c0,0,0.6,0.6,0.3,0.3h0.3
		l0.3,0.3l2.2,1.7c11.7,9.2,25.9,12.5,38.2,12.3c1.7,0,3.3-0.3,4.7-0.3c1.7-0.3,3.3-0.3,4.5-0.6c1.4-0.3,2.8-0.6,3.9-0.8
		c0.8-0.3,1.4-0.3,2.2-0.6c0.6-0.3,1.4-0.6,2-0.8c5.3-2,10-4.5,14.2-7.2c8.1-5.6,13.7-12.3,17.6-17.8c3.9-5.9,5.9-10.9,7-14.2
		c0.6-1.7,0.8-3.1,1.1-3.9c0.3-0.8,0.3-1.4,0.3-1.4s-0.3,0.6-0.6,1.4c-0.3,0.8-0.8,2.2-1.7,3.6c-1.7,3.1-4.5,7.8-8.6,12.5
		c-4.5,5-10.3,10-18.4,14.2c-3.9,2-8.4,3.9-13.1,4.7c-0.6,0-1.1,0.3-1.7,0.3l0,0l0,0h-0.3h-0.6h-1.1c-1.4,0.3-2.8,0.3-4.2,0.6
		c-0.8,0-1.4,0-2,0h-2c-1.1,0-2.5,0-3.6,0c-10.3-0.8-21.7-4.7-30.4-12.5l-1.7-1.4l-0.3-0.3l0,0l-0.3-0.3l-0.8-0.8l-1.7-2
		c-0.3-0.3-0.6-0.6-0.8-0.8l-0.6-0.8c-0.8-1.1-1.7-2-2.5-3.3c-0.8-1.4-1.7-2.5-2.2-3.9c-2.8-5.3-4.7-11.4-5.9-17.6
		c-0.8-6.4-0.8-12.8,0.3-19.2c1.1-6.4,3.1-12.8,6.1-18.7c0.8-1.4,1.7-2.8,2.5-4.2l0.3-0.3l0,0l0.3-0.6l0.8-1.1l1.7-2.2
		c1.1-1.4,2-2.5,3.1-3.6l3.6-3.6c5-4.7,10.6-8.6,16.7-11.7c12.3-6.4,26.5-9.5,40.1-9.5h2.5h0.6h0.3h0.3c0.3,0,0,0,0,0h1.4L428,156.7
		z"/>
	<g>
		<path fill="none" d="M548.9,332.8c0-1.4-0.3-3.1-0.3-4.5s-0.3-2.8-0.6-4.5c-1.7,4.2-3.1,8.6-3.9,12.8c-0.6,2.8-0.8,5.6-0.8,8.1
			s0.8,4.7,1.4,5.6c0.8-0.6,2.2-2.8,2.8-5c0.8-2.5,1.4-5.3,1.4-8.1v-1.1v-0.6v-0.3V335V332.8z"/>
		<path fill="#D6D6D6" d="M602.9,237.8c-5,4.2-10,8.6-14.8,13.1c-4.7,4.5-9.5,9.2-14.2,13.9c-4.7,4.7-8.9,9.8-13.4,15
			c-3.3,4.2-6.7,8.4-9.8,12.8c-0.6-1.7-1.4-3.3-2-5c-2.5-6.1-5.3-12.3-8.1-18.1c-3.1-5.9-6.1-11.7-9.2-17.6c-3.1-5.9-6.7-11.4-10-17
			c-3.3-5.6-7-11.1-10.9-16.7c-3.6-5.6-7.5-10.9-11.4-16.2c3.1,5.9,6.1,11.7,9.2,17.6s5.9,11.7,8.6,17.6c2.8,5.9,5.6,12,8.4,17.8
			s5.3,12,7.8,17.8c2.5,6.1,4.7,12,7,18.1c1.4,4.2,2.8,8.4,3.9,12.5c-2,3.3-3.9,6.7-5.6,10c-3.1,6.1-5.6,12.8-7,20.1
			c-0.6,3.6-1.1,7.5-0.8,11.4c0.3,2,0.6,4.2,1.1,6.1c0.6,2.2,1.7,4.5,3.3,6.7c1.7,2.2,4.7,4.5,8.4,4.7s7-1.1,9.2-2.8
			c2.2-1.7,3.6-3.6,4.7-5.6c1.1-2,2-3.9,2.5-5.9c1.1-3.9,1.4-7.5,1.4-11.4v-2.5l-0.3-2.8c0-1.7-0.3-3.6-0.6-5.3
			c-0.8-6.4-2.2-12.8-4.2-18.9c0.8-1.7,2-3.1,2.8-4.7c3.3-5.3,44.3-65.8,44.3-65.8L602.9,237.8z M548.9,335.6v0.6v1.1
			c-0.3,2.5-0.6,5.6-1.4,8.1c-0.8,2.2-2,4.5-2.8,5c-0.6-0.8-1.4-3.1-1.4-5.6s0.3-5.3,0.8-8.1c0.8-4.2,2.2-8.6,3.9-12.8
			c0.3,1.4,0.3,2.8,0.6,4.5c0,1.4,0.3,3.1,0.3,4.5v2.2V335.6C548.9,335,548.9,335.3,548.9,335.6z"/>
	</g>
</g>
</svg>
